G04 DipTrace 3.3.1.1*
G04 TopSilk.gbr*
%MOIN*%
G04 #@! TF.FileFunction,Legend,Top*
G04 #@! TF.Part,Single*
%ADD10C,0.009843*%
%ADD20C,0.015748*%
%ADD67C,0.037485*%
%ADD142C,0.00772*%
%ADD143C,0.015439*%
%FSLAX26Y26*%
G04*
G70*
G90*
G75*
G01*
G04 TopSilk*
%LPD*%
X5293701Y2606201D2*
D10*
X5093701D1*
X5293701Y4006201D2*
X5093701D1*
X5293701D2*
Y2606201D1*
X5093701Y4006201D2*
Y2606201D1*
X3449951D2*
X3249951D1*
X3449951Y4006201D2*
X3249951D1*
X3449951D2*
Y2606201D1*
X3249951Y4006201D2*
Y2606201D1*
X5293701Y1406199D2*
X5093701D1*
X5293701Y2506199D2*
Y1406199D1*
X5093701Y2506199D2*
Y1406199D1*
X5293701Y2506199D2*
X5093701D1*
X3449950Y1406199D2*
X3249950D1*
X3449950Y2506199D2*
Y1406199D1*
X3249950Y2506199D2*
Y1406199D1*
X3449950Y2506199D2*
X3249950D1*
X5974951Y3706201D2*
X6174951D1*
X5974951Y2706201D2*
Y2781201D1*
Y2706201D2*
X6174951D1*
Y2781201D1*
Y3706201D1*
X5974951Y2781201D2*
Y3706201D1*
X1981201Y2368701D2*
Y2568701D1*
X2681201Y2368701D2*
Y2568701D1*
X1981201D1*
X2681201Y2368701D2*
X1981201D1*
X6868121Y2012276D2*
Y2112276D1*
X5868121Y2012276D2*
X6868121D1*
X5868121D2*
Y2112276D1*
X5943121D1*
X6868121D1*
X1923091Y4721752D2*
X2001810D1*
X2100254Y4623307D2*
Y4544588D1*
X2001810Y4446143D2*
X1923091D1*
X1824646Y4544588D2*
Y4623307D1*
X6793701Y4456198D2*
Y4356198D1*
X6993701Y4456198D2*
X6793701D1*
X6993701D2*
Y4356198D1*
X6793701D1*
X7593701Y2737449D2*
Y2637449D1*
X7793701Y2737449D2*
X7593701D1*
X7793701D2*
Y2637449D1*
X7593701D1*
X7856199Y3287449D2*
Y3387449D1*
X7656199Y3287449D2*
X7856199D1*
X7656199D2*
Y3387449D1*
X7856199D1*
X6131503Y300295D2*
Y438071D1*
X5855898Y300295D2*
X6131503D1*
X5757482Y890846D2*
X6229920D1*
Y508937D2*
Y438071D1*
X5757482D2*
X5855898D1*
X5757482Y508937D2*
Y438071D1*
X6229920D2*
X6131503D1*
X6229920Y694016D2*
Y603425D1*
Y890846D2*
Y812126D1*
X5855898Y300295D2*
Y438071D1*
X5757482Y694016D2*
Y603425D1*
Y890846D2*
Y812126D1*
X1037754Y300295D2*
Y438071D1*
X762149Y300295D2*
X1037754D1*
X663733Y890846D2*
X1136170D1*
Y508937D2*
Y438071D1*
X663733D2*
X762149D1*
X663733Y508937D2*
Y438071D1*
X1136170D2*
X1037754D1*
X1136170Y694016D2*
Y603425D1*
Y890846D2*
Y812126D1*
X762149Y300295D2*
Y438071D1*
X663733Y694016D2*
Y603425D1*
Y890846D2*
Y812126D1*
X4906176Y668701D2*
Y631212D1*
X4006226D1*
Y668701D1*
X4906176Y643708D2*
D3*
X4968701Y418694D2*
X3943701D1*
Y668701D1*
X4968701D1*
Y418694D1*
G36*
Y417766D2*
Y480274D1*
X4906176Y417766D1*
X4968701D1*
G37*
X1606503Y300295D2*
D10*
Y438071D1*
X1330898Y300295D2*
X1606503D1*
X1232482Y890846D2*
X1704920D1*
Y508937D2*
Y438071D1*
X1232482D2*
X1330898D1*
X1232482Y508937D2*
Y438071D1*
X1704920D2*
X1606503D1*
X1704920Y694016D2*
Y603425D1*
Y890846D2*
Y812126D1*
X1330898Y300295D2*
Y438071D1*
X1232482Y694016D2*
Y603425D1*
Y890846D2*
Y812126D1*
X668701Y3743696D2*
X631212D1*
Y4343706D1*
X668701D1*
X643708Y3743696D2*
D3*
X418694Y3681201D2*
X668701D1*
Y4406201D1*
X418694D1*
Y3681201D1*
G36*
X417766D2*
X480274D1*
X417766Y3743696D1*
Y3681201D1*
G37*
X668701Y3018718D2*
D10*
X631212D1*
Y3318683D1*
X668701D1*
X643708Y3018718D2*
D3*
X418694Y2956201D2*
X668701D1*
Y3381201D1*
X418694D1*
Y2956201D1*
G36*
X417766D2*
X480274D1*
X417766Y3018718D1*
Y2956201D1*
G37*
X3824946Y668701D2*
D10*
Y631212D1*
X3724956D1*
Y668701D1*
X3824946Y643708D2*
D3*
X3887451Y418694D2*
X3662451D1*
Y668701D1*
X3887451D1*
Y418694D1*
G36*
Y417766D2*
Y480274D1*
X3824924Y417766D1*
X3887451D1*
G37*
X2126000Y3268398D2*
D10*
X2075989D1*
X2126000D1*
X2075989D2*
Y3393408D1*
Y3268398D1*
X2126000D2*
Y3393408D1*
Y3268398D1*
Y3393408D2*
X2075989D1*
X2126000D1*
X647588Y1341334D2*
X852312D1*
Y1546067D1*
X647588D1*
Y1467327D1*
Y1420075D2*
Y1341334D1*
Y1420075D2*
G03X647588Y1467327I-1J23626D01*
G01*
X947588Y1341334D2*
X1152312D1*
Y1546067D1*
X947588D1*
Y1467327D1*
Y1420075D2*
Y1341334D1*
Y1420075D2*
G03X947588Y1467327I-1J23626D01*
G01*
X1528839Y1341334D2*
X1733563D1*
Y1546067D1*
X1528839D1*
Y1467327D1*
Y1420075D2*
Y1341334D1*
Y1420075D2*
G03X1528839Y1467327I-1J23626D01*
G01*
X1433563Y1546067D2*
X1228839D1*
Y1341334D1*
X1433563D1*
Y1420075D1*
Y1467327D2*
Y1546067D1*
Y1467327D2*
G03X1433563Y1420075I1J-23626D01*
G01*
X6718701Y2431201D2*
X7468701D1*
X7518701Y2481201D2*
Y2881201D1*
X7468701Y2931201D2*
X6768701D1*
X6718701Y2431201D2*
Y2881201D1*
X6768701Y2456201D2*
X7468701D1*
X7493741Y2481201D2*
Y2881201D1*
X7468701Y2906201D2*
X6768701D1*
X6743661Y2881201D2*
Y2481201D1*
X7468701Y2431201D2*
G03X7518701Y2481201I-1J50001D01*
G01*
X7468701Y2456201D2*
G03X7493741Y2481201I14J25026D01*
G01*
X7468701Y2906201D2*
G02X7493741Y2881201I14J-25026D01*
G01*
X7468701Y2931201D2*
G02X7518701Y2881201I-1J-50001D01*
G01*
X6743661D2*
G02X6768701Y2906201I25026J-26D01*
G01*
X6718701Y2881201D2*
G02X6768701Y2931201I50001J-1D01*
G01*
X6743661Y2481201D2*
G03X6768701Y2456201I25026J26D01*
G01*
X7105741Y2731201D2*
Y2631201D1*
X7130701D1*
Y2731201D1*
X7105741D1*
X7155661D2*
Y2681201D1*
X7081741Y2731201D2*
Y2681201D1*
X7155661D2*
X7218701D1*
X7155661D2*
Y2631201D1*
X7081741Y2681201D2*
X7018701D1*
X7081741D2*
Y2631201D1*
X6893005Y2794371D2*
Y2569356D1*
D67*
X6936768Y2613109D3*
X6893005Y2794371D2*
D10*
X6967975D1*
X6893005Y2569356D2*
X6967975D1*
X7343005Y2794371D2*
Y2569356D1*
X7268035Y2794371D2*
X7343005D1*
Y2569356D2*
X7268035D1*
X7067965D2*
X7168045D1*
X7067965Y2794371D2*
X7168045D1*
X2968701Y4799950D2*
D20*
X5568701D1*
Y699950D1*
X2968701D1*
Y4799950D1*
X5662451Y4399950D2*
Y2524950D1*
X1793701Y2637450D2*
X2868701D1*
Y437450D1*
X1793701D1*
Y2637450D1*
X5668701Y2162450D2*
X7493701D1*
Y437450D1*
X5668701D1*
Y2162450D1*
X5812451Y4549950D2*
X8081201D1*
X5812451Y2374951D2*
X8081201Y2374950D1*
X8224950Y4387451D2*
X8224951Y2537451D1*
X5191950Y4079424D2*
D142*
Y4041177D1*
X5189574Y4033992D1*
X5187142Y4031616D1*
X5182389Y4029184D1*
X5177580D1*
X5172827Y4031616D1*
X5170450Y4033992D1*
X5168019Y4041177D1*
Y4045931D1*
X5207390Y4069807D2*
X5212198Y4072239D1*
X5219383Y4079369D1*
Y4029184D1*
X3337451Y4079424D2*
Y4041177D1*
X3335074Y4033992D1*
X3332643Y4031616D1*
X3327889Y4029184D1*
X3323081D1*
X3318328Y4031616D1*
X3315951Y4033992D1*
X3313519Y4041177D1*
Y4045931D1*
X3355322Y4067430D2*
Y4069807D1*
X3357699Y4074615D1*
X3360075Y4076992D1*
X3364884Y4079369D1*
X3374445D1*
X3379199Y4076992D1*
X3381575Y4074615D1*
X3384007Y4069807D1*
Y4065054D1*
X3381575Y4060245D1*
X3376822Y4053116D1*
X3352890Y4029184D1*
X3386384D1*
X5181200Y2579423D2*
Y2541176D1*
X5178824Y2533991D1*
X5176392Y2531614D1*
X5171639Y2529183D1*
X5166830D1*
X5162077Y2531614D1*
X5159701Y2533991D1*
X5157269Y2541176D1*
Y2545929D1*
X5201448Y2579367D2*
X5227701D1*
X5213386Y2560244D1*
X5220571D1*
X5225324Y2557867D1*
X5227701Y2555491D1*
X5230133Y2548306D1*
Y2543553D1*
X5227701Y2536368D1*
X5222948Y2531559D1*
X5215763Y2529183D1*
X5208578D1*
X5201448Y2531559D1*
X5199071Y2533991D1*
X5196640Y2538744D1*
X3336261Y2579423D2*
Y2541176D1*
X3333885Y2533991D1*
X3331453Y2531614D1*
X3326700Y2529183D1*
X3321891D1*
X3317138Y2531614D1*
X3314762Y2533991D1*
X3312330Y2541176D1*
Y2545929D1*
X3375632Y2529183D2*
Y2579367D1*
X3351701Y2545929D1*
X3387571D1*
X6062451Y3779424D2*
Y3741177D1*
X6060074Y3733992D1*
X6057643Y3731616D1*
X6052889Y3729184D1*
X6048081D1*
X6043328Y3731616D1*
X6040951Y3733992D1*
X6038519Y3741177D1*
Y3745931D1*
X6106575Y3779369D2*
X6082699D1*
X6080322Y3757869D1*
X6082699Y3760245D1*
X6089884Y3762677D1*
X6097014D1*
X6104199Y3760245D1*
X6109007Y3755492D1*
X6111384Y3748307D1*
Y3743554D1*
X6109007Y3736369D1*
X6104199Y3731560D1*
X6097014Y3729184D1*
X6089884D1*
X6082699Y3731560D1*
X6080322Y3733992D1*
X6077890Y3738745D1*
X6043981Y2639002D2*
X6024803Y2689242D1*
X6005680Y2639002D1*
X6012865Y2655749D2*
X6036796D1*
X6059421Y2689242D2*
Y2639002D1*
X6076167D1*
X6083352Y2641434D1*
X6088161Y2646187D1*
X6090537Y2650996D1*
X6092914Y2658125D1*
Y2670119D1*
X6090537Y2677304D1*
X6088161Y2682057D1*
X6083352Y2686866D1*
X6076167Y2689242D1*
X6059421D1*
X6144223Y2677304D2*
X6141847Y2682057D1*
X6137038Y2686866D1*
X6132285Y2689242D1*
X6122723D1*
X6117915Y2686866D1*
X6113162Y2682057D1*
X6110730Y2677304D1*
X6108353Y2670119D1*
Y2658125D1*
X6110730Y2650996D1*
X6113162Y2646187D1*
X6117915Y2641434D1*
X6122723Y2639002D1*
X6132285D1*
X6137038Y2641434D1*
X6141847Y2646187D1*
X6144223Y2650996D1*
X2319916Y2351742D2*
Y2313496D1*
X2317540Y2306311D1*
X2315108Y2303934D1*
X2310355Y2301502D1*
X2305546D1*
X2300793Y2303934D1*
X2298416Y2306311D1*
X2295985Y2313496D1*
Y2318249D1*
X2364040Y2344557D2*
X2361664Y2349310D1*
X2354479Y2351687D1*
X2349726D1*
X2342541Y2349310D1*
X2337732Y2342125D1*
X2335356Y2330187D1*
Y2318249D1*
X2337732Y2308687D1*
X2342541Y2303879D1*
X2349726Y2301502D1*
X2352102D1*
X2359232Y2303879D1*
X2364040Y2308687D1*
X2366417Y2315872D1*
Y2318249D1*
X2364040Y2325434D1*
X2359232Y2330187D1*
X2352102Y2332564D1*
X2349726D1*
X2342541Y2330187D1*
X2337732Y2325434D1*
X2335356Y2318249D1*
X6355620Y1995317D2*
Y1957070D1*
X6353244Y1949885D1*
X6350812Y1947509D1*
X6346059Y1945077D1*
X6341250D1*
X6336497Y1947509D1*
X6334120Y1949885D1*
X6331689Y1957070D1*
Y1961824D1*
X6380621Y1945077D2*
X6404553Y1995262D1*
X6371060D1*
X1949977Y4810320D2*
Y4772074D1*
X1947601Y4764889D1*
X1945169Y4762512D1*
X1940416Y4760080D1*
X1935607D1*
X1930854Y4762512D1*
X1928477Y4764889D1*
X1926046Y4772074D1*
Y4776827D1*
X1977355Y4810265D2*
X1970225Y4807888D1*
X1967793Y4803135D1*
Y4798327D1*
X1970225Y4793574D1*
X1974978Y4791142D1*
X1984540Y4788765D1*
X1991725Y4786388D1*
X1996478Y4781580D1*
X1998855Y4776827D1*
Y4769642D1*
X1996478Y4764889D1*
X1994101Y4762457D1*
X1986916Y4760080D1*
X1977355D1*
X1970225Y4762457D1*
X1967793Y4764889D1*
X1965417Y4769642D1*
Y4776827D1*
X1967793Y4781580D1*
X1972602Y4786388D1*
X1979731Y4788765D1*
X1989293Y4791142D1*
X1994101Y4793574D1*
X1996478Y4798327D1*
Y4803135D1*
X1994101Y4807888D1*
X1986916Y4810265D1*
X1977355D1*
X1848685Y4413839D2*
Y4363599D1*
X1831939Y4413839D2*
X1865432D1*
X1880871D2*
X1914365Y4363599D1*
Y4413839D2*
X1880871Y4363599D1*
X1992775Y4413839D2*
X1987967Y4411463D1*
X1983213Y4406654D1*
X1980782Y4401901D1*
X1978405Y4394716D1*
Y4382722D1*
X1980782Y4375593D1*
X1983213Y4370784D1*
X1987967Y4366031D1*
X1992775Y4363599D1*
X2002337D1*
X2007090Y4366031D1*
X2011898Y4370784D1*
X2014275Y4375593D1*
X2016651Y4382722D1*
Y4394716D1*
X2014275Y4401901D1*
X2011898Y4406654D1*
X2007090Y4411463D1*
X2002337Y4413839D1*
X1992775D1*
X2032091Y4397093D2*
Y4373161D1*
X2034467Y4366031D1*
X2039276Y4363599D1*
X2046461D1*
X2051214Y4366031D1*
X2058399Y4373161D1*
Y4397093D2*
Y4363599D1*
X2081023Y4413839D2*
Y4373161D1*
X2083400Y4366031D1*
X2088208Y4363599D1*
X2092961D1*
X2073838Y4397093D2*
X2090585D1*
X6882389Y4529421D2*
Y4491175D1*
X6880012Y4483990D1*
X6877580Y4481613D1*
X6872827Y4479181D1*
X6868019D1*
X6863265Y4481613D1*
X6860889Y4483990D1*
X6858457Y4491175D1*
Y4495928D1*
X6928945Y4512675D2*
X6926513Y4505490D1*
X6921760Y4500681D1*
X6914575Y4498304D1*
X6912198D1*
X6905013Y4500681D1*
X6900260Y4505490D1*
X6897828Y4512675D1*
Y4515051D1*
X6900260Y4522236D1*
X6905013Y4526989D1*
X6912198Y4529366D1*
X6914575D1*
X6921760Y4526989D1*
X6926513Y4522236D1*
X6928945Y4512675D1*
Y4500681D1*
X6926513Y4488743D1*
X6921760Y4481558D1*
X6914575Y4479181D1*
X6909821D1*
X6902636Y4481558D1*
X6900260Y4486366D1*
X6757874Y4288999D2*
X6738696Y4339239D1*
X6719572Y4288999D1*
X6726757Y4305746D2*
X6750689D1*
X6773313Y4339239D2*
Y4288999D1*
X6790060D1*
X6797245Y4291431D1*
X6802053Y4296185D1*
X6804430Y4300993D1*
X6806807Y4308123D1*
Y4320116D1*
X6804430Y4327301D1*
X6802053Y4332054D1*
X6797245Y4336863D1*
X6790060Y4339239D1*
X6773313D1*
X6858116Y4327301D2*
X6855739Y4332054D1*
X6850931Y4336863D1*
X6846178Y4339239D1*
X6836616D1*
X6831807Y4336863D1*
X6827054Y4332054D1*
X6824622Y4327301D1*
X6822246Y4320116D1*
Y4308123D1*
X6824622Y4300993D1*
X6827054Y4296185D1*
X6831807Y4291431D1*
X6836616Y4288999D1*
X6846178D1*
X6850931Y4291431D1*
X6855739Y4296185D1*
X6858116Y4300993D1*
X6943656Y4335619D2*
Y4292564D1*
X6922156Y4314064D2*
X6965211D1*
X7009335Y4339184D2*
X6985459D1*
X6983082Y4317684D1*
X6985459Y4320061D1*
X6992644Y4322493D1*
X6999773D1*
X7006959Y4320061D1*
X7011767Y4315308D1*
X7014144Y4308123D1*
Y4303370D1*
X7011767Y4296185D1*
X7006959Y4291376D1*
X6999773Y4288999D1*
X6992644D1*
X6985459Y4291376D1*
X6983082Y4293808D1*
X6980650Y4298561D1*
X7029583Y4339239D2*
X7048706Y4288999D1*
X7067829Y4339239D1*
X7667484Y2810672D2*
Y2772425D1*
X7665107Y2765240D1*
X7662676Y2762864D1*
X7657922Y2760432D1*
X7653114D1*
X7648361Y2762864D1*
X7645984Y2765240D1*
X7643552Y2772425D1*
Y2777179D1*
X7682923Y2801055D2*
X7687732Y2803487D1*
X7694917Y2810617D1*
Y2760432D1*
X7724726Y2810617D2*
X7717541Y2808240D1*
X7712733Y2801055D1*
X7710356Y2789117D1*
Y2781932D1*
X7712733Y2769994D1*
X7717541Y2762808D1*
X7724726Y2760432D1*
X7729479D1*
X7736664Y2762808D1*
X7741417Y2769994D1*
X7743849Y2781932D1*
Y2789117D1*
X7741417Y2801055D1*
X7736664Y2808240D1*
X7729479Y2810617D1*
X7724726D1*
X7741417Y2801055D2*
X7712733Y2769994D1*
X7566247Y2570250D2*
X7547069Y2620490D1*
X7527946Y2570250D1*
X7535131Y2586997D2*
X7559062D1*
X7581687Y2620490D2*
Y2570250D1*
X7598433D1*
X7605618Y2572682D1*
X7610427Y2577435D1*
X7612803Y2582244D1*
X7615180Y2589373D1*
Y2601367D1*
X7612803Y2608552D1*
X7610427Y2613305D1*
X7605618Y2618114D1*
X7598433Y2620490D1*
X7581687D1*
X7666489Y2608552D2*
X7664113Y2613305D1*
X7659304Y2618114D1*
X7654551Y2620490D1*
X7644989D1*
X7640181Y2618114D1*
X7635428Y2613305D1*
X7632996Y2608552D1*
X7630619Y2601367D1*
Y2589373D1*
X7632996Y2582244D1*
X7635428Y2577435D1*
X7640181Y2572682D1*
X7644989Y2570250D1*
X7654551D1*
X7659304Y2572682D1*
X7664113Y2577435D1*
X7666489Y2582244D1*
X7766399Y2608552D2*
X7764023Y2613305D1*
X7759214Y2618114D1*
X7754461Y2620490D1*
X7744899D1*
X7740091Y2618114D1*
X7735338Y2613305D1*
X7732906Y2608552D1*
X7730529Y2601367D1*
Y2589373D1*
X7732906Y2582244D1*
X7735338Y2577435D1*
X7740091Y2572682D1*
X7744899Y2570250D1*
X7754461D1*
X7759214Y2572682D1*
X7764023Y2577435D1*
X7766399Y2582244D1*
X7781839Y2620490D2*
Y2570250D1*
X7810523D1*
X7825963Y2620490D2*
Y2570250D1*
X7859456Y2620490D2*
X7825963Y2586997D1*
X7837901Y2598990D2*
X7859456Y2570250D1*
X7740733Y3460672D2*
Y3422425D1*
X7738356Y3415240D1*
X7735924Y3412864D1*
X7731171Y3410432D1*
X7726363D1*
X7721609Y3412864D1*
X7719233Y3415240D1*
X7716801Y3422425D1*
Y3427179D1*
X7756172Y3451055D2*
X7760980Y3453487D1*
X7768165Y3460617D1*
Y3410432D1*
X7783605Y3451055D2*
X7788413Y3453487D1*
X7795598Y3460617D1*
Y3410432D1*
X7672336Y3220250D2*
X7653157Y3270490D1*
X7634034Y3220250D1*
X7641219Y3236997D2*
X7665151D1*
X7687775Y3270490D2*
Y3220250D1*
X7704522D1*
X7711707Y3222682D1*
X7716515Y3227435D1*
X7718892Y3232244D1*
X7721268Y3239373D1*
Y3251367D1*
X7718892Y3258552D1*
X7716515Y3263305D1*
X7711707Y3268114D1*
X7704522Y3270490D1*
X7687775D1*
X7772577Y3258552D2*
X7770201Y3263305D1*
X7765392Y3268114D1*
X7760639Y3270490D1*
X7751078D1*
X7746269Y3268114D1*
X7741516Y3263305D1*
X7739084Y3258552D1*
X7736707Y3251367D1*
Y3239373D1*
X7739084Y3232244D1*
X7741516Y3227435D1*
X7746269Y3222682D1*
X7751078Y3220250D1*
X7760639D1*
X7765392Y3222682D1*
X7770201Y3227435D1*
X7772577Y3232244D1*
X7836618Y3270490D2*
Y3220250D1*
X7852057Y3253743D2*
Y3220250D1*
Y3244182D2*
X7859242Y3251367D1*
X7864050Y3253743D1*
X7871180D1*
X7875989Y3251367D1*
X7878365Y3244182D1*
Y3220250D1*
X6250817Y569354D2*
X6289064D1*
X6296249Y566978D1*
X6298625Y564546D1*
X6301057Y559793D1*
Y554984D1*
X6298625Y550231D1*
X6296249Y547854D1*
X6289063Y545422D1*
X6284310D1*
X6260434Y584793D2*
X6258002Y589602D1*
X6250872Y596787D1*
X6301057D1*
X6250872Y617035D2*
Y643288D1*
X6269996Y628973D1*
Y636158D1*
X6272372Y640911D1*
X6274749Y643288D1*
X6281934Y645719D1*
X6286687D1*
X6293872Y643288D1*
X6298680Y638534D1*
X6301057Y631349D1*
Y624164D1*
X6298680Y617035D1*
X6296249Y614658D1*
X6291495Y612226D1*
X5889867Y937761D2*
X5911422D1*
X5918551Y940138D1*
X5920983Y942570D1*
X5923360Y947323D1*
Y954508D1*
X5920983Y959261D1*
X5918551Y961693D1*
X5911422Y964070D1*
X5889867D1*
Y913830D1*
X5938799Y964070D2*
Y913830D1*
Y937761D2*
X5945984Y944946D1*
X5950793Y947323D1*
X5957978D1*
X5962731Y944946D1*
X5965107Y937761D1*
Y913830D1*
X5992485Y947323D2*
X5987732Y944946D1*
X5982923Y940138D1*
X5980547Y932953D1*
Y928200D1*
X5982923Y921015D1*
X5987732Y916261D1*
X5992485Y913830D1*
X5999670D1*
X6004478Y916261D1*
X6009232Y921015D1*
X6011663Y928200D1*
Y932953D1*
X6009232Y940138D1*
X6004478Y944946D1*
X5999670Y947323D1*
X5992485D1*
X6027103D2*
Y913830D1*
Y937761D2*
X6034288Y944946D1*
X6039096Y947323D1*
X6046226D1*
X6051034Y944946D1*
X6053411Y937761D1*
Y913830D1*
X6068850Y932953D2*
X6097535D1*
Y937761D1*
X6095158Y942570D1*
X6092782Y944946D1*
X6087973Y947323D1*
X6080788D1*
X6076035Y944946D1*
X6071227Y940138D1*
X6068850Y932953D1*
Y928200D1*
X6071227Y921015D1*
X6076035Y916261D1*
X6080788Y913830D1*
X6087973D1*
X6092782Y916261D1*
X6097535Y921015D1*
X586571Y730666D2*
X624817D1*
X632003Y728289D1*
X634379Y725857D1*
X636811Y721104D1*
Y716296D1*
X634379Y711543D1*
X632002Y709166D1*
X624817Y706734D1*
X620064D1*
X596188Y746105D2*
X593756Y750914D1*
X586626Y758099D1*
X636811D1*
Y797469D2*
X586626Y797470D1*
X620064Y773538D1*
Y809408D1*
X837865Y964070D2*
Y913830D1*
X871358Y964070D2*
X837865Y930576D1*
X849803Y942570D2*
X871358Y913830D1*
X886797Y932953D2*
X915482D1*
Y937761D1*
X913106Y942570D1*
X910729Y944946D1*
X905921Y947323D1*
X898736D1*
X893982Y944946D1*
X889174Y940138D1*
X886797Y932953D1*
Y928200D1*
X889174Y921015D1*
X893982Y916261D1*
X898736Y913830D1*
X905921D1*
X910729Y916261D1*
X915482Y921015D1*
X933353Y947323D2*
X947668Y913830D1*
X942915Y904268D1*
X938106Y899459D1*
X933353Y897083D1*
X930921D1*
X962038Y947323D2*
X947668Y913830D1*
X4429984Y854425D2*
Y816178D1*
X4427607Y808993D1*
X4425176Y806616D1*
X4420422Y804185D1*
X4415614D1*
X4410861Y806616D1*
X4408484Y808993D1*
X4406052Y816178D1*
Y820931D1*
X4445423Y844808D2*
X4450232Y847239D1*
X4457417Y854369D1*
Y804185D1*
X4501541Y854369D2*
X4477664D1*
X4475288Y832869D1*
X4477664Y835246D1*
X4484849Y837678D1*
X4491979D1*
X4499164Y835246D1*
X4503973Y830493D1*
X4506349Y823308D1*
Y818555D1*
X4503973Y811370D1*
X4499164Y806561D1*
X4491979Y804185D1*
X4484849D1*
X4477664Y806561D1*
X4475288Y808993D1*
X4472856Y813746D1*
X4317776Y779425D2*
Y743555D1*
X4320153Y736370D1*
X4324961Y731616D1*
X4332146Y729185D1*
X4336900D1*
X4344085Y731616D1*
X4348893Y736370D1*
X4351270Y743555D1*
Y779425D1*
X4393017Y755493D2*
X4390641Y760301D1*
X4383456Y762678D1*
X4376271D1*
X4369086Y760301D1*
X4366709Y755493D1*
X4369086Y750740D1*
X4373894Y748308D1*
X4385832Y745931D1*
X4390641Y743555D1*
X4393017Y738746D1*
Y736370D1*
X4390641Y731616D1*
X4383456Y729185D1*
X4376271D1*
X4369086Y731616D1*
X4366709Y736370D1*
X4408456Y748308D2*
X4437141D1*
Y753116D1*
X4434765Y757925D1*
X4432388Y760301D1*
X4427580Y762678D1*
X4420395D1*
X4415642Y760301D1*
X4410833Y755493D1*
X4408456Y748308D1*
Y743555D1*
X4410833Y736370D1*
X4415642Y731616D1*
X4420395Y729185D1*
X4427580D1*
X4432388Y731616D1*
X4437141Y736370D1*
X4452581Y762678D2*
Y729185D1*
Y748308D2*
X4455012Y755493D1*
X4459766Y760301D1*
X4464574Y762678D1*
X4471759D1*
X4499137D2*
X4494383Y760301D1*
X4489575Y755493D1*
X4487198Y748308D1*
Y743555D1*
X4489575Y736370D1*
X4494383Y731616D1*
X4499137Y729185D1*
X4506322D1*
X4511130Y731616D1*
X4515883Y736370D1*
X4518315Y743555D1*
Y748308D1*
X4515883Y755493D1*
X4511130Y760301D1*
X4506322Y762678D1*
X4499137D1*
X4533754D2*
Y738746D1*
X4536131Y731616D1*
X4540939Y729185D1*
X4548124D1*
X4552878Y731616D1*
X4560063Y738746D1*
Y762678D2*
Y729185D1*
X4582687Y779425D2*
Y738746D1*
X4585064Y731616D1*
X4589872Y729185D1*
X4594625D1*
X4575502Y762678D2*
X4592249D1*
X1155320Y726819D2*
X1193567D1*
X1200752Y724443D1*
X1203128Y722011D1*
X1205560Y717258D1*
Y712449D1*
X1203128Y707696D1*
X1200752Y705320D1*
X1193567Y702888D1*
X1188814D1*
X1164937Y742259D2*
X1162505Y747067D1*
X1155376Y754252D1*
X1205560D1*
X1162505Y798376D2*
X1157752Y796000D1*
X1155376Y788815D1*
Y784061D1*
X1157752Y776876D1*
X1164937Y772068D1*
X1176875Y769691D1*
X1188814D1*
X1198375Y772068D1*
X1203184Y776876D1*
X1205560Y784061D1*
Y786438D1*
X1203184Y793568D1*
X1198375Y798376D1*
X1191190Y800753D1*
X1188814D1*
X1181629Y798376D1*
X1176875Y793568D1*
X1174499Y786438D1*
Y784061D1*
X1176875Y776876D1*
X1181629Y772068D1*
X1188814Y769691D1*
X1403022Y937761D2*
X1424577D1*
X1431706Y940138D1*
X1434138Y942570D1*
X1436515Y947323D1*
Y954508D1*
X1434138Y959261D1*
X1431706Y961693D1*
X1424577Y964070D1*
X1403022D1*
Y913830D1*
X1468701Y964070D2*
Y913830D1*
X1451954Y964070D2*
X1485447D1*
X1517633D2*
Y913830D1*
X1500887Y964070D2*
X1534380D1*
X506267Y4479424D2*
Y4441177D1*
X503890Y4433992D1*
X501458Y4431616D1*
X496705Y4429184D1*
X491897D1*
X487144Y4431616D1*
X484767Y4433992D1*
X482335Y4441177D1*
Y4445931D1*
X524138Y4467430D2*
Y4469807D1*
X526515Y4474615D1*
X528891Y4476992D1*
X533700Y4479369D1*
X543261D1*
X548014Y4476992D1*
X550391Y4474615D1*
X552823Y4469807D1*
Y4465054D1*
X550391Y4460245D1*
X545638Y4453116D1*
X521706Y4429184D1*
X555199D1*
X585009Y4479369D2*
X577824Y4476992D1*
X573015Y4469807D1*
X570639Y4457869D1*
Y4450684D1*
X573015Y4438745D1*
X577824Y4431560D1*
X585009Y4429184D1*
X589762D1*
X596947Y4431560D1*
X601700Y4438745D1*
X604132Y4450684D1*
Y4457869D1*
X601700Y4469807D1*
X596947Y4476992D1*
X589762Y4479369D1*
X585009D1*
X601700Y4469807D2*
X573015Y4438745D1*
X692845Y4004330D2*
X688037Y3999577D1*
X685660Y3992392D1*
Y3982830D1*
X688037Y3975645D1*
X692845Y3970837D1*
X697598D1*
X702407Y3973268D1*
X704783Y3975645D1*
X707160Y3980398D1*
X711968Y3994768D1*
X714345Y3999577D1*
X716777Y4001953D1*
X721530Y4004330D1*
X728715D1*
X733468Y3999577D1*
X735900Y3992392D1*
Y3982830D1*
X733468Y3975645D1*
X728715Y3970837D1*
X685660Y4019769D2*
X735900Y4031763D1*
X685660Y4043701D1*
X735900Y4055639D1*
X685660Y4067633D1*
X709592Y4083072D2*
Y4104572D1*
X707160Y4111757D1*
X704783Y4114189D1*
X700030Y4116565D1*
X695222D1*
X690469Y4114189D1*
X688037Y4111757D1*
X685660Y4104572D1*
Y4083072D1*
X735900D1*
X709592Y4099818D2*
X735900Y4116565D1*
X517017Y3454424D2*
Y3416177D1*
X514640Y3408992D1*
X512208Y3406616D1*
X507455Y3404184D1*
X502647D1*
X497894Y3406616D1*
X495517Y3408992D1*
X493085Y3416177D1*
Y3420931D1*
X534888Y3442430D2*
Y3444807D1*
X537264Y3449615D1*
X539641Y3451992D1*
X544450Y3454369D1*
X554011D1*
X558764Y3451992D1*
X561141Y3449615D1*
X563573Y3444807D1*
Y3440054D1*
X561141Y3435245D1*
X556388Y3428116D1*
X532456Y3404184D1*
X565949D1*
X581389Y3444807D2*
X586197Y3447239D1*
X593382Y3454369D1*
Y3404184D1*
X685660Y2962359D2*
X735900D1*
Y2983914D1*
X733468Y2991099D1*
X731092Y2993475D1*
X726339Y2995852D1*
X719154D1*
X714345Y2993476D1*
X711968Y2991099D1*
X709592Y2983914D1*
X707160Y2991099D1*
X704783Y2993476D1*
X700030Y2995852D1*
X695222D1*
X690469Y2993476D1*
X688037Y2991099D1*
X685660Y2983914D1*
Y2962359D1*
X709592D2*
Y2983914D1*
X702407Y3023230D2*
X704783Y3018476D1*
X709592Y3013668D1*
X716777Y3011291D1*
X721530D1*
X728715Y3013668D1*
X733468Y3018476D1*
X735900Y3023230D1*
Y3030415D1*
X733468Y3035223D1*
X728715Y3039976D1*
X721530Y3042408D1*
X716777D1*
X709592Y3039976D1*
X704783Y3035223D1*
X702407Y3030415D1*
Y3023230D1*
Y3086532D2*
X735900D1*
X709592D2*
X704783Y3081779D1*
X702407Y3076971D1*
Y3069841D1*
X704783Y3065032D1*
X709592Y3060279D1*
X716777Y3057847D1*
X721530D1*
X728715Y3060279D1*
X733468Y3065032D1*
X735900Y3069841D1*
Y3076971D1*
X733468Y3081779D1*
X728715Y3086532D1*
X702407Y3101971D2*
X735900D1*
X716777D2*
X709592Y3104403D1*
X704783Y3109156D1*
X702407Y3113965D1*
Y3121150D1*
X685660Y3165274D2*
X735900D1*
X709592D2*
X704783Y3160521D1*
X702407Y3155712D1*
Y3148527D1*
X704783Y3143774D1*
X709592Y3138966D1*
X716777Y3136589D1*
X721530D1*
X728715Y3138966D1*
X733468Y3143774D1*
X735900Y3148527D1*
Y3155712D1*
X733468Y3160521D1*
X728715Y3165274D1*
X711968Y3229314D2*
Y3250869D1*
X709592Y3257999D1*
X707160Y3260431D1*
X702407Y3262808D1*
X695222D1*
X690469Y3260431D1*
X688037Y3257999D1*
X685660Y3250869D1*
Y3229314D1*
X735900D1*
X685660Y3278247D2*
X735900Y3290240D1*
X685660Y3302179D1*
X735900Y3314117D1*
X685660Y3326110D1*
X709592Y3341550D2*
Y3363049D1*
X707160Y3370234D1*
X704783Y3372666D1*
X700030Y3375043D1*
X695222D1*
X690469Y3372666D1*
X688037Y3370234D1*
X685660Y3363049D1*
Y3341550D1*
X735900D1*
X709592Y3358296D2*
X735900Y3375043D1*
X3737985Y854425D2*
Y816178D1*
X3735608Y808993D1*
X3733176Y806616D1*
X3728423Y804185D1*
X3723615D1*
X3718861Y806616D1*
X3716485Y808993D1*
X3714053Y816178D1*
Y820931D1*
X3755856Y842431D2*
Y844808D1*
X3758232Y849616D1*
X3760609Y851993D1*
X3765417Y854369D1*
X3774979D1*
X3779732Y851993D1*
X3782109Y849616D1*
X3784541Y844808D1*
Y840054D1*
X3782109Y835246D1*
X3777356Y828116D1*
X3753424Y804185D1*
X3786917D1*
X3804788Y842431D2*
Y844808D1*
X3807165Y849616D1*
X3809542Y851993D1*
X3814350Y854369D1*
X3823912D1*
X3828665Y851993D1*
X3831041Y849616D1*
X3833473Y844808D1*
Y840054D1*
X3831041Y835246D1*
X3826288Y828116D1*
X3802357Y804185D1*
X3835850D1*
X3619974Y749499D2*
X3641529D1*
X3648659Y751875D1*
X3651091Y754307D1*
X3653467Y759060D1*
Y766245D1*
X3651091Y770999D1*
X3648659Y773430D1*
X3641529Y775807D1*
X3619974D1*
Y725567D1*
X3668906Y775807D2*
Y725567D1*
X3697591D1*
X3713031Y775807D2*
Y725567D1*
X3741715D1*
X3820126Y775807D2*
X3815317Y773430D1*
X3810564Y768622D1*
X3808132Y763869D1*
X3805756Y756684D1*
Y744690D1*
X3808132Y737561D1*
X3810564Y732752D1*
X3815317Y727999D1*
X3820126Y725567D1*
X3829687D1*
X3834441Y727999D1*
X3839249Y732752D1*
X3841626Y737561D1*
X3844002Y744690D1*
Y756684D1*
X3841626Y763869D1*
X3839249Y768622D1*
X3834441Y773430D1*
X3829687Y775807D1*
X3820126D1*
X3885750Y751875D2*
X3883373Y756684D1*
X3876188Y759060D1*
X3869003D1*
X3861818Y756684D1*
X3859441Y751875D1*
X3861818Y747122D1*
X3866626Y744690D1*
X3878565Y742314D1*
X3883373Y739937D1*
X3885750Y735129D1*
Y732752D1*
X3883373Y727999D1*
X3876188Y725567D1*
X3869003D1*
X3861818Y727999D1*
X3859441Y732752D1*
X3929929Y751875D2*
X3925121Y756684D1*
X3920312Y759060D1*
X3913182D1*
X3908374Y756684D1*
X3903621Y751875D1*
X3901189Y744690D1*
Y739937D1*
X3903621Y732752D1*
X3908374Y727999D1*
X3913182Y725567D1*
X3920312D1*
X3925121Y727999D1*
X3929929Y732752D1*
X2117484Y3556294D2*
Y3506054D1*
X2100738Y3556294D2*
X2134231D1*
X2149670Y3546677D2*
X2154479Y3549109D1*
X2161664Y3556239D1*
Y3506054D1*
X690268Y1696451D2*
X709391Y1646211D1*
X728514Y1696451D1*
X758323D2*
X753515Y1694075D1*
X748762Y1689266D1*
X746330Y1684513D1*
X743953Y1677328D1*
Y1665335D1*
X746330Y1658205D1*
X748762Y1653396D1*
X753515Y1648643D1*
X758323Y1646211D1*
X767885D1*
X772638Y1648643D1*
X777447Y1653396D1*
X779823Y1658205D1*
X782200Y1665335D1*
Y1677328D1*
X779823Y1684513D1*
X777447Y1689266D1*
X772638Y1694075D1*
X767885Y1696451D1*
X758323D1*
X797639Y1686835D2*
X802448Y1689266D1*
X809633Y1696396D1*
Y1646211D1*
X979518Y1696451D2*
X998641Y1646211D1*
X1017764Y1696451D1*
X1047574D2*
X1042765Y1694075D1*
X1038012Y1689266D1*
X1035580Y1684513D1*
X1033203Y1677328D1*
Y1665335D1*
X1035580Y1658205D1*
X1038012Y1653396D1*
X1042765Y1648643D1*
X1047574Y1646211D1*
X1057135D1*
X1061888Y1648643D1*
X1066697Y1653396D1*
X1069073Y1658205D1*
X1071450Y1665335D1*
Y1677328D1*
X1069073Y1684513D1*
X1066697Y1689266D1*
X1061888Y1694075D1*
X1057135Y1696451D1*
X1047574D1*
X1089321Y1684458D2*
Y1686835D1*
X1091698Y1691643D1*
X1094074Y1694020D1*
X1098883Y1696396D1*
X1108444D1*
X1113198Y1694020D1*
X1115574Y1691643D1*
X1118006Y1686835D1*
Y1682081D1*
X1115574Y1677273D1*
X1110821Y1670143D1*
X1086889Y1646211D1*
X1120383D1*
X1560768Y1696451D2*
X1579892Y1646211D1*
X1599015Y1696451D1*
X1628824D2*
X1624016Y1694075D1*
X1619263Y1689266D1*
X1616831Y1684513D1*
X1614454Y1677328D1*
Y1665335D1*
X1616831Y1658205D1*
X1619263Y1653396D1*
X1624016Y1648643D1*
X1628824Y1646211D1*
X1638386D1*
X1643139Y1648643D1*
X1647947Y1653396D1*
X1650324Y1658205D1*
X1652701Y1665335D1*
Y1677328D1*
X1650324Y1684513D1*
X1647947Y1689266D1*
X1643139Y1694075D1*
X1638386Y1696451D1*
X1628824D1*
X1672948Y1696396D2*
X1699201D1*
X1684887Y1677273D1*
X1692072D1*
X1696825Y1674896D1*
X1699201Y1672520D1*
X1701633Y1665335D1*
Y1660581D1*
X1699201Y1653396D1*
X1694448Y1648588D1*
X1687263Y1646211D1*
X1680078D1*
X1672948Y1648588D1*
X1670572Y1651020D1*
X1668140Y1655773D1*
X1259580Y1696451D2*
X1278703Y1646211D1*
X1297827Y1696451D1*
X1327636D2*
X1322827Y1694075D1*
X1318074Y1689266D1*
X1315642Y1684513D1*
X1313266Y1677328D1*
Y1665335D1*
X1315642Y1658205D1*
X1318074Y1653396D1*
X1322827Y1648643D1*
X1327636Y1646211D1*
X1337198D1*
X1341951Y1648643D1*
X1346759Y1653396D1*
X1349136Y1658205D1*
X1351512Y1665335D1*
Y1677328D1*
X1349136Y1684513D1*
X1346759Y1689266D1*
X1341951Y1694075D1*
X1337198Y1696451D1*
X1327636D1*
X1390883Y1646211D2*
Y1696396D1*
X1366952Y1662958D1*
X1402822D1*
X7085861Y3004424D2*
X7104984Y2980492D1*
Y2954184D1*
X7124108Y3004424D2*
X7104984Y2980492D1*
X7139547Y2994807D2*
X7144355Y2997239D1*
X7151540Y3004369D1*
Y2954184D1*
X6886798Y3410941D2*
D143*
X6848441Y3511421D1*
X6810195Y3410941D1*
X6824565Y3444435D2*
X6872428D1*
X6917677Y3511421D2*
Y3410941D1*
X6951170D1*
X6965540Y3415805D1*
X6975157Y3425311D1*
X6979910Y3434928D1*
X6984663Y3449188D1*
Y3473175D1*
X6979910Y3487545D1*
X6975157Y3497051D1*
X6965540Y3506668D1*
X6951170Y3511421D1*
X6917677D1*
X7087282Y3487545D2*
X7082529Y3497051D1*
X7072912Y3506668D1*
X7063405Y3511421D1*
X7044282D1*
X7034665Y3506668D1*
X7025159Y3497051D1*
X7020295Y3487545D1*
X7015542Y3473175D1*
Y3449188D1*
X7020295Y3434928D1*
X7025159Y3425311D1*
X7034665Y3415805D1*
X7044282Y3410941D1*
X7063405D1*
X7072912Y3415805D1*
X7082529Y3425311D1*
X7087282Y3434928D1*
X2205983Y1601177D2*
Y1500697D1*
X2263353D1*
X2370835D2*
X2332478Y1601177D1*
X2294232Y1500697D1*
X2308602Y1534190D2*
X2356465D1*
X2468700Y1601177D2*
Y1500697D1*
X2401714Y1601177D1*
Y1500697D1*
X6460734Y1339801D2*
X6455981Y1349307D1*
X6446364Y1358924D1*
X6436857Y1363677D1*
X6417734D1*
X6408117Y1358924D1*
X6398611Y1349307D1*
X6393747Y1339801D1*
X6388994Y1325431D1*
Y1301444D1*
X6393747Y1287184D1*
X6398611Y1277567D1*
X6408117Y1268061D1*
X6417734Y1263197D1*
X6436857D1*
X6446364Y1268061D1*
X6455981Y1277567D1*
X6460734Y1287184D1*
X6515489Y1330184D2*
X6505982Y1325431D1*
X6496365Y1315814D1*
X6491612Y1301444D1*
Y1291937D1*
X6496365Y1277567D1*
X6505982Y1268061D1*
X6515489Y1263197D1*
X6529859D1*
X6539476Y1268061D1*
X6548982Y1277567D1*
X6553846Y1291937D1*
Y1301444D1*
X6548982Y1315814D1*
X6539476Y1325431D1*
X6529859Y1330184D1*
X6515489D1*
X6642094Y1363677D2*
Y1263197D1*
Y1315814D2*
X6632588Y1325431D1*
X6622971Y1330184D1*
X6608601D1*
X6599094Y1325431D1*
X6589477Y1315814D1*
X6584724Y1301444D1*
Y1291937D1*
X6589477Y1277567D1*
X6599094Y1268061D1*
X6608601Y1263197D1*
X6622971D1*
X6632588Y1268061D1*
X6642094Y1277567D1*
X6672973Y1301444D2*
X6730342D1*
Y1311061D1*
X6725589Y1320677D1*
X6720836Y1325431D1*
X6711219Y1330184D1*
X6696849D1*
X6687343Y1325431D1*
X6677726Y1315814D1*
X6672973Y1301444D1*
Y1291937D1*
X6677726Y1277567D1*
X6687343Y1268061D1*
X6696849Y1263197D1*
X6711219D1*
X6720836Y1268061D1*
X6730342Y1277567D1*
X6818701Y1315814D2*
X6809084Y1325431D1*
X6799467Y1330184D1*
X6785208D1*
X6775591Y1325431D1*
X6766084Y1315814D1*
X6761221Y1301444D1*
Y1291937D1*
X6766084Y1277567D1*
X6775591Y1268061D1*
X6785208Y1263197D1*
X6799467D1*
X6809084Y1268061D1*
X6818701Y1277567D1*
X4070305Y2746440D2*
X4031948Y2846920D1*
X3993701Y2746440D1*
X4008071Y2779933D2*
X4055935D1*
X4101183Y2846920D2*
Y2746440D1*
X4158553D1*
X4222925Y2846920D2*
Y2746440D1*
X4189432Y2846920D2*
X4256418D1*
X4349420D2*
X4287297D1*
Y2746440D1*
X4349420D1*
X4287297Y2799056D2*
X4325543D1*
X4380298D2*
X4423298D1*
X4437668Y2803920D1*
X4442532Y2808673D1*
X4447285Y2818180D1*
Y2827797D1*
X4442532Y2837303D1*
X4437668Y2842167D1*
X4423298Y2846920D1*
X4380298D1*
Y2746440D1*
X4413792Y2799056D2*
X4447285Y2746440D1*
X4554767D2*
X4516410Y2846920D1*
X4478163Y2746440D1*
X4492533Y2779933D2*
X4540397D1*
X7668519Y530771D2*
D142*
X7718759D1*
Y547517D1*
X7716327Y554702D1*
X7711574Y559511D1*
X7706766Y561887D1*
X7699636Y564264D1*
X7687642D1*
X7680457Y561887D1*
X7675704Y559511D1*
X7670896Y554702D1*
X7668519Y547517D1*
Y530771D1*
Y579703D2*
X7718759D1*
Y596450D1*
X7716327Y603635D1*
X7711574Y608443D1*
X7706766Y610820D1*
X7699636Y613197D1*
X7687642D1*
X7680457Y610820D1*
X7675704Y608443D1*
X7670896Y603635D1*
X7668519Y596450D1*
Y579703D1*
X7680457Y664506D2*
X7675704Y662129D1*
X7670896Y657321D1*
X7668519Y652567D1*
Y643006D1*
X7670896Y638197D1*
X7675704Y633444D1*
X7680457Y631012D1*
X7687642Y628636D1*
X7699636D1*
X7706766Y631012D1*
X7711574Y633444D1*
X7716327Y638197D1*
X7718759Y643006D1*
Y652567D1*
X7716327Y657321D1*
X7711574Y662129D1*
X7706766Y664506D1*
X7718759Y679945D2*
X7668574Y713438D1*
X7668519Y728878D2*
X7718759Y728877D1*
Y745624D1*
X7716327Y752809D1*
X7711574Y757618D1*
X7706766Y759994D1*
X7699636Y762371D1*
X7687642D1*
X7680457Y759994D1*
X7675704Y757618D1*
X7670896Y752809D1*
X7668519Y745624D1*
Y728878D1*
Y777810D2*
X7704389D1*
X7711574Y780187D1*
X7716327Y784995D1*
X7718759Y792180D1*
Y796933D1*
X7716327Y804118D1*
X7711574Y808927D1*
X7704389Y811303D1*
X7668519D1*
X7680457Y862613D2*
X7675704Y860236D1*
X7670896Y855428D1*
X7668519Y850674D1*
Y841113D1*
X7670896Y836304D1*
X7675704Y831551D1*
X7680457Y829119D1*
X7687642Y826743D1*
X7699636D1*
X7706766Y829119D1*
X7711574Y831551D1*
X7716327Y836304D1*
X7718759Y841113D1*
Y850674D1*
X7716327Y855428D1*
X7711574Y860236D1*
X7706766Y862613D1*
X7668519Y943399D2*
X7718759D1*
X7668519Y926653D2*
Y960146D1*
X7692451Y975585D2*
Y997085D1*
X7690019Y1004270D1*
X7687642Y1006702D1*
X7682889Y1009079D1*
X7678081D1*
X7673328Y1006702D1*
X7670896Y1004270D1*
X7668519Y997085D1*
Y975585D1*
X7718759D1*
X7692451Y992332D2*
X7718759Y1009079D1*
X7668519Y1024518D2*
X7718759Y1058011D1*
X7668519D2*
X7718759Y1024518D1*
X7685266Y1122052D2*
X7718759D1*
X7694827D2*
X7687642Y1129237D1*
X7685266Y1134045D1*
Y1141175D1*
X7687642Y1145983D1*
X7694827Y1148360D1*
X7718759D1*
X7694827D2*
X7687642Y1155545D1*
X7685266Y1160353D1*
Y1167483D1*
X7687642Y1172292D1*
X7694827Y1174723D1*
X7718759D1*
X7685266Y1218848D2*
X7718759D1*
X7692451D2*
X7687642Y1214094D1*
X7685266Y1209286D1*
Y1202156D1*
X7687642Y1197348D1*
X7692451Y1192594D1*
X7699636Y1190163D1*
X7704389D1*
X7711574Y1192594D1*
X7716327Y1197348D1*
X7718759Y1202156D1*
Y1209286D1*
X7716327Y1214094D1*
X7711574Y1218848D1*
X7668519Y1234287D2*
X7670896Y1236663D1*
X7668519Y1239095D1*
X7666087Y1236663D1*
X7668519Y1234287D1*
X7685266Y1236663D2*
X7718759D1*
X7685266Y1254534D2*
X7718759D1*
X7694827D2*
X7687642Y1261720D1*
X7685266Y1266528D1*
Y1273658D1*
X7687642Y1278466D1*
X7694827Y1280843D1*
X7718759D1*
X7668519Y1296282D2*
X7718759D1*
X7692451D2*
X7687642Y1301090D1*
X7685266Y1305844D1*
Y1313029D1*
X7687642Y1317782D1*
X7692451Y1322590D1*
X7699636Y1324967D1*
X7704389D1*
X7711574Y1322590D1*
X7716327Y1317782D1*
X7718759Y1313029D1*
Y1305844D1*
X7716327Y1301090D1*
X7711574Y1296282D1*
X7685266Y1352344D2*
X7687642Y1347591D1*
X7692451Y1342783D1*
X7699636Y1340406D1*
X7704389D1*
X7711574Y1342783D1*
X7716327Y1347591D1*
X7718759Y1352344D1*
Y1359529D1*
X7716327Y1364338D1*
X7711574Y1369091D1*
X7704389Y1371523D1*
X7699636D1*
X7692451Y1369091D1*
X7687642Y1364338D1*
X7685266Y1359529D1*
Y1352344D1*
Y1415647D2*
X7718759D1*
X7692451D2*
X7687642Y1410894D1*
X7685266Y1406085D1*
Y1398956D1*
X7687642Y1394147D1*
X7692451Y1389394D1*
X7699636Y1386962D1*
X7704389D1*
X7711574Y1389394D1*
X7716327Y1394147D1*
X7718759Y1398956D1*
Y1406085D1*
X7716327Y1410894D1*
X7711574Y1415647D1*
X7685266Y1431086D2*
X7718759D1*
X7699636D2*
X7692451Y1433518D1*
X7687642Y1438271D1*
X7685266Y1443080D1*
Y1450265D1*
X7668519Y1494389D2*
X7718759D1*
X7692451D2*
X7687642Y1489636D1*
X7685266Y1484827D1*
Y1477642D1*
X7687642Y1472889D1*
X7692451Y1468081D1*
X7699636Y1465704D1*
X7704389D1*
X7711574Y1468081D1*
X7716327Y1472889D1*
X7718759Y1477642D1*
Y1484827D1*
X7716327Y1489636D1*
X7711574Y1494389D1*
X7685266Y1558429D2*
X7718759Y1572799D1*
X7685266Y1587114D1*
X7713951Y1604930D2*
X7716382Y1602553D1*
X7718759Y1604930D1*
X7716382Y1607362D1*
X7713951Y1604930D1*
X7668574Y1685772D2*
X7670951Y1678587D1*
X7678136Y1673779D1*
X7690074Y1671402D1*
X7697259D1*
X7709197Y1673779D1*
X7716382Y1678587D1*
X7718759Y1685772D1*
Y1690525D1*
X7716382Y1697710D1*
X7709197Y1702463D1*
X7697259Y1704895D1*
X7690074D1*
X7678136Y1702463D1*
X7670951Y1697710D1*
X7668574Y1690525D1*
Y1685772D1*
X7678136Y1702463D2*
X7709197Y1673779D1*
X7713951Y1722711D2*
X7716382Y1720335D1*
X7718759Y1722711D1*
X7716382Y1725143D1*
X7713951Y1722711D1*
X7678136Y1740582D2*
X7675704Y1745391D1*
X7668574Y1752576D1*
X7718759D1*
X7907381Y562033D2*
X7902628Y559656D1*
X7897820Y554848D1*
X7895443Y550095D1*
Y540533D1*
X7897820Y535725D1*
X7902628Y530972D1*
X7907381Y528540D1*
X7914566Y526163D1*
X7926560D1*
X7933689Y528540D1*
X7938498Y530972D1*
X7943251Y535725D1*
X7945683Y540533D1*
Y550095D1*
X7943251Y554848D1*
X7938498Y559656D1*
X7933690Y562033D1*
X7912190Y577472D2*
X7945683D1*
X7926560D2*
X7919375Y579904D1*
X7914566Y584657D1*
X7912190Y589466D1*
Y596651D1*
X7926560Y612090D2*
Y640775D1*
X7921751D1*
X7916943Y638398D1*
X7914566Y636022D1*
X7912190Y631213D1*
Y624028D1*
X7914566Y619275D1*
X7919375Y614467D1*
X7926560Y612090D1*
X7931313D1*
X7938498Y614467D1*
X7943251Y619275D1*
X7945683Y624028D1*
Y631213D1*
X7943251Y636022D1*
X7938498Y640775D1*
X7895443Y684899D2*
X7945683D1*
X7919375D2*
X7914566Y680146D1*
X7912190Y675337D1*
Y668152D1*
X7914566Y663399D1*
X7919375Y658591D1*
X7926560Y656214D1*
X7931313D1*
X7938498Y658591D1*
X7943251Y663399D1*
X7945683Y668152D1*
Y675337D1*
X7943251Y680146D1*
X7938498Y684899D1*
X7895443Y700338D2*
X7897820Y702715D1*
X7895443Y705147D1*
X7893011Y702715D1*
X7895443Y700338D1*
X7912190Y702715D2*
X7945683D1*
X7895443Y727771D2*
X7936121D1*
X7943251Y730148D1*
X7945683Y734956D1*
Y739709D1*
X7912190Y720586D2*
Y737333D1*
X7919375Y781457D2*
X7914566Y779080D1*
X7912190Y771895D1*
Y764710D1*
X7914566Y757525D1*
X7919375Y755148D1*
X7924128Y757525D1*
X7926560Y762333D1*
X7928936Y774272D1*
X7931313Y779080D1*
X7936121Y781457D1*
X7938498D1*
X7943251Y779080D1*
X7945683Y771895D1*
Y764710D1*
X7943251Y757525D1*
X7938498Y755148D1*
X7895443Y852682D2*
X7936121D1*
X7943251Y855059D1*
X7945683Y859867D1*
Y864620D1*
X7912190Y845497D2*
Y862244D1*
Y891998D2*
X7914566Y887244D1*
X7919375Y882436D1*
X7926560Y880059D1*
X7931313D1*
X7938498Y882436D1*
X7943251Y887244D1*
X7945683Y891998D1*
Y899183D1*
X7943251Y903991D1*
X7938498Y908744D1*
X7931313Y911176D1*
X7926560D1*
X7919375Y908744D1*
X7914566Y903991D1*
X7912190Y899183D1*
Y891998D1*
X7895443Y1006278D2*
Y975216D1*
X7945683D1*
Y1006278D1*
X7919375Y975216D2*
Y994340D1*
X7895443Y1021717D2*
X7931313D1*
X7938498Y1024094D1*
X7943251Y1028902D1*
X7945683Y1036087D1*
Y1040840D1*
X7943251Y1048025D1*
X7938498Y1052834D1*
X7931313Y1055210D1*
X7895443D1*
X7905060Y1070650D2*
X7902628Y1075458D1*
X7895498Y1082643D1*
X7945683D1*
X7902628Y1131576D2*
X7897820Y1126823D1*
X7895443Y1119638D1*
Y1110076D1*
X7897820Y1102891D1*
X7902628Y1098082D1*
X7907381D1*
X7912190Y1100514D1*
X7914566Y1102891D1*
X7916943Y1107644D1*
X7921751Y1122014D1*
X7924128Y1126823D1*
X7926560Y1129199D1*
X7931313Y1131576D1*
X7938498D1*
X7943251Y1126823D1*
X7945683Y1119638D1*
Y1110076D1*
X7943251Y1102891D1*
X7938498Y1098082D1*
X7895443Y1147015D2*
X7945683Y1159008D1*
X7895443Y1170947D1*
X7945683Y1182885D1*
X7895443Y1194878D1*
X7907438Y1616095D2*
X7905061D1*
X7900253Y1618472D1*
X7897876Y1620848D1*
X7895500Y1625657D1*
Y1635218D1*
X7897876Y1639971D1*
X7900253Y1642348D1*
X7905061Y1644780D1*
X7909814D1*
X7914623Y1642348D1*
X7921753Y1637595D1*
X7945684Y1613663D1*
Y1647156D1*
X7895500Y1676966D2*
X7897876Y1669781D1*
X7905061Y1664972D1*
X7916999Y1662596D1*
X7924184D1*
X7936123Y1664972D1*
X7943308Y1669781D1*
X7945684Y1676966D1*
Y1681719D1*
X7943308Y1688904D1*
X7936123Y1693657D1*
X7924184Y1696089D1*
X7916999D1*
X7905061Y1693657D1*
X7897876Y1688904D1*
X7895500Y1681719D1*
Y1676966D1*
X7905061Y1693657D2*
X7936123Y1664972D1*
X7905061Y1711528D2*
X7902629Y1716337D1*
X7895500Y1723522D1*
X7945684D1*
X7895500Y1750899D2*
X7897876Y1743769D1*
X7902629Y1741337D1*
X7907438D1*
X7912191Y1743769D1*
X7914623Y1748523D1*
X7916999Y1758084D1*
X7919376Y1765269D1*
X7924184Y1770022D1*
X7928938Y1772399D1*
X7936123D1*
X7940876Y1770022D1*
X7943308Y1767646D1*
X7945684Y1760461D1*
Y1750899D1*
X7943308Y1743769D1*
X7940876Y1741337D1*
X7936123Y1738961D1*
X7928938D1*
X7924184Y1741337D1*
X7919376Y1746146D1*
X7916999Y1753276D1*
X7914623Y1762837D1*
X7912191Y1767646D1*
X7907438Y1770022D1*
X7902629D1*
X7897876Y1767646D1*
X7895500Y1760461D1*
Y1750899D1*
X7779331Y529558D2*
X7829571D1*
Y546305D1*
X7827140Y553490D1*
X7822386Y558298D1*
X7817578Y560675D1*
X7810448Y563051D1*
X7798455D1*
X7791270Y560675D1*
X7786516Y558298D1*
X7781708Y553490D1*
X7779331Y546305D1*
Y529558D1*
X7810448Y578491D2*
Y607175D1*
X7805640D1*
X7800831Y604799D1*
X7798455Y602422D1*
X7796078Y597614D1*
Y590429D1*
X7798455Y585676D1*
X7803263Y580867D1*
X7810448Y578491D1*
X7815201D1*
X7822386Y580867D1*
X7827140Y585676D1*
X7829571Y590429D1*
Y597614D1*
X7827140Y602422D1*
X7822386Y607175D1*
X7803263Y648923D2*
X7798455Y646546D1*
X7796078Y639361D1*
Y632176D1*
X7798455Y624991D1*
X7803263Y622615D1*
X7808016Y624991D1*
X7810448Y629800D1*
X7812825Y641738D1*
X7815201Y646546D1*
X7820010Y648923D1*
X7822386D1*
X7827140Y646546D1*
X7829571Y639361D1*
Y632176D1*
X7827140Y624991D1*
X7822386Y622615D1*
X7779331Y664362D2*
X7781708Y666739D1*
X7779331Y669171D1*
X7776900Y666739D1*
X7779331Y664362D1*
X7796078Y666739D2*
X7829571D1*
X7798455Y713295D2*
X7836756D1*
X7843886Y710918D1*
X7846318Y708542D1*
X7848695Y703733D1*
Y696548D1*
X7846318Y691795D1*
X7805640Y713295D2*
X7800887Y708542D1*
X7798455Y703733D1*
Y696548D1*
X7800887Y691795D1*
X7805640Y686987D1*
X7812825Y684610D1*
X7817633D1*
X7824763Y686987D1*
X7829571Y691795D1*
X7831948Y696548D1*
Y703733D1*
X7829571Y708542D1*
X7824763Y713295D1*
X7796078Y728734D2*
X7829571D1*
X7805640D2*
X7798455Y735919D1*
X7796078Y740728D1*
Y747857D1*
X7798455Y752666D1*
X7805640Y755042D1*
X7829571D1*
X7810448Y770482D2*
Y799167D1*
X7805640D1*
X7800831Y796790D1*
X7798455Y794413D1*
X7796078Y789605D1*
Y782420D1*
X7798455Y777667D1*
X7803263Y772858D1*
X7810448Y770482D1*
X7815201D1*
X7822386Y772858D1*
X7827140Y777667D1*
X7829571Y782420D1*
Y789605D1*
X7827140Y794413D1*
X7822386Y799167D1*
X7779331Y843291D2*
X7829571D1*
X7803263D2*
X7798455Y838537D1*
X7796078Y833729D1*
Y826544D1*
X7798455Y821791D1*
X7803263Y816982D1*
X7810448Y814606D1*
X7815201D1*
X7822386Y816982D1*
X7827140Y821791D1*
X7829571Y826544D1*
Y833729D1*
X7827140Y838537D1*
X7822386Y843291D1*
X7779331Y907331D2*
X7829571D1*
X7803263D2*
X7798455Y912139D1*
X7796078Y916892D1*
Y924078D1*
X7798455Y928831D1*
X7803263Y933639D1*
X7810448Y936016D1*
X7815201D1*
X7822386Y933639D1*
X7827140Y928831D1*
X7829571Y924078D1*
Y916892D1*
X7827140Y912139D1*
X7822386Y907331D1*
X7796078Y953887D2*
X7829571Y968202D1*
X7839133Y963448D1*
X7843941Y958640D1*
X7846318Y953887D1*
Y951455D1*
X7796078Y982572D2*
X7829571Y968202D1*
X7779331Y1046612D2*
X7815201D1*
X7822386Y1048989D1*
X7827140Y1053797D1*
X7829571Y1060982D1*
Y1065735D1*
X7827140Y1072920D1*
X7822386Y1077729D1*
X7815201Y1080105D1*
X7779331D1*
X7803263Y1095545D2*
Y1117044D1*
X7800831Y1124229D1*
X7798455Y1126661D1*
X7793701Y1129038D1*
X7788893D1*
X7784140Y1126661D1*
X7781708Y1124229D1*
X7779331Y1117044D1*
Y1095545D1*
X7829571D1*
X7803263Y1112291D2*
X7829571Y1129038D1*
X7779387Y1173162D2*
Y1149286D1*
X7800887Y1146909D1*
X7798510Y1149286D1*
X7796078Y1156471D1*
Y1163600D1*
X7798510Y1170785D1*
X7803263Y1175594D1*
X7810448Y1177970D1*
X7815201D1*
X7822386Y1175594D1*
X7827195Y1170785D1*
X7829571Y1163600D1*
Y1156471D1*
X7827195Y1149286D1*
X7824763Y1146909D1*
X7820010Y1144477D1*
X7779331Y1193410D2*
X7829571D1*
X7779331Y1226903D2*
X7812825Y1193410D1*
X7800831Y1205348D2*
X7829571Y1226903D1*
X7779331Y1242342D2*
X7829571D1*
Y1296028D2*
X7779331D1*
X7829571Y1276905D1*
X7779331Y1257782D1*
X7829571D1*
X7796078Y1388753D2*
X7829571D1*
X7803263D2*
X7798455Y1384000D1*
X7796078Y1379192D1*
Y1372062D1*
X7798455Y1367253D1*
X7803263Y1362500D1*
X7810448Y1360068D1*
X7815201D1*
X7822386Y1362500D1*
X7827140Y1367253D1*
X7829571Y1372062D1*
Y1379192D1*
X7827140Y1384000D1*
X7822386Y1388753D1*
X7796078Y1404192D2*
X7829571D1*
X7805640D2*
X7798455Y1411377D1*
X7796078Y1416186D1*
Y1423316D1*
X7798455Y1428124D1*
X7805640Y1430501D1*
X7829571D1*
X7779331Y1474625D2*
X7829571D1*
X7803263D2*
X7798455Y1469872D1*
X7796078Y1465063D1*
Y1457878D1*
X7798455Y1453125D1*
X7803263Y1448317D1*
X7810448Y1445940D1*
X7815201D1*
X7822386Y1448317D1*
X7827140Y1453125D1*
X7829571Y1457878D1*
Y1465063D1*
X7827140Y1469872D1*
X7822386Y1474625D1*
X7779331Y1538665D2*
X7815201D1*
X7822386Y1541042D1*
X7827140Y1545850D1*
X7829571Y1553035D1*
Y1557788D1*
X7827140Y1564973D1*
X7822386Y1569782D1*
X7815201Y1572158D1*
X7779331D1*
X7803263Y1587598D2*
Y1609097D1*
X7800831Y1616283D1*
X7798455Y1618714D1*
X7793701Y1621091D1*
X7788893D1*
X7784140Y1618714D1*
X7781708Y1616283D1*
X7779331Y1609097D1*
Y1587598D1*
X7829571D1*
X7803263Y1604344D2*
X7829571Y1621091D1*
X7779387Y1665215D2*
Y1641339D1*
X7800887Y1638962D1*
X7798510Y1641339D1*
X7796078Y1648524D1*
Y1655653D1*
X7798510Y1662839D1*
X7803263Y1667647D1*
X7810448Y1670024D1*
X7815201D1*
X7822386Y1667647D1*
X7827195Y1662839D1*
X7829571Y1655653D1*
Y1648524D1*
X7827195Y1641339D1*
X7824763Y1638962D1*
X7820010Y1636530D1*
X7779331Y1685463D2*
X7829571D1*
X7779331Y1718956D2*
X7812825Y1685463D1*
X7800831Y1697401D2*
X7829571Y1718956D1*
X7779331Y1734395D2*
X7829571D1*
X7779331Y1766581D2*
X7829571D1*
X7779331Y1749835D2*
Y1783328D1*
X811341Y3343341D2*
Y3300286D1*
X789841Y3321786D2*
X832896D1*
X860274Y3346906D2*
X853144Y3344529D1*
X850712Y3339776D1*
Y3334968D1*
X853144Y3330215D1*
X857897Y3327783D1*
X867459Y3325406D1*
X874644Y3323030D1*
X879397Y3318221D1*
X881774Y3313468D1*
Y3306283D1*
X879397Y3301530D1*
X877021Y3299098D1*
X869836Y3296721D1*
X860274D1*
X853144Y3299098D1*
X850712Y3301530D1*
X848336Y3306283D1*
Y3313468D1*
X850712Y3318221D1*
X855521Y3323030D1*
X862650Y3325406D1*
X872212Y3327783D1*
X877021Y3330215D1*
X879397Y3334968D1*
Y3339776D1*
X877021Y3344529D1*
X869836Y3346906D1*
X860274D1*
X897213Y3346961D2*
X916336Y3296721D1*
X935459Y3346961D1*
X811341Y3243341D2*
Y3200286D1*
X789841Y3221786D2*
X832896D1*
X877021Y3246906D2*
X853144D1*
X850768Y3225406D1*
X853144Y3227783D1*
X860329Y3230215D1*
X867459D1*
X874644Y3227783D1*
X879452Y3223030D1*
X881829Y3215845D1*
Y3211091D1*
X879452Y3203906D1*
X874644Y3199098D1*
X867459Y3196721D1*
X860329D1*
X853144Y3199098D1*
X850768Y3201530D1*
X848336Y3206283D1*
X897268Y3246961D2*
X916391Y3196721D1*
X935515Y3246961D1*
X979639Y3230215D2*
Y3196721D1*
Y3223030D2*
X974886Y3227838D1*
X970077Y3230215D1*
X962947D1*
X958139Y3227838D1*
X953386Y3223030D1*
X950954Y3215845D1*
Y3211091D1*
X953386Y3203906D1*
X958139Y3199153D1*
X962947Y3196721D1*
X970077D1*
X974886Y3199153D1*
X979639Y3203906D1*
X811341Y3143341D2*
Y3100286D1*
X789841Y3121786D2*
X832896D1*
X877021Y3146906D2*
X853144D1*
X850768Y3125406D1*
X853144Y3127783D1*
X860329Y3130215D1*
X867459D1*
X874644Y3127783D1*
X879452Y3123030D1*
X881829Y3115845D1*
Y3111091D1*
X879452Y3103906D1*
X874644Y3099098D1*
X867459Y3096721D1*
X860329D1*
X853144Y3099098D1*
X850768Y3101530D1*
X848336Y3106283D1*
X897268Y3146961D2*
X916391Y3096721D1*
X935515Y3146961D1*
X979639D2*
Y3096721D1*
Y3123030D2*
X974886Y3127838D1*
X970077Y3130215D1*
X962892D1*
X958139Y3127838D1*
X953331Y3123030D1*
X950954Y3115845D1*
Y3111091D1*
X953331Y3103906D1*
X958139Y3099153D1*
X962892Y3096721D1*
X970077D1*
X974886Y3099153D1*
X979639Y3103906D1*
X825711Y3035023D2*
X823335Y3039776D1*
X818526Y3044585D1*
X813773Y3046961D1*
X804212D1*
X799403Y3044585D1*
X794650Y3039776D1*
X792218Y3035023D1*
X789841Y3027838D1*
Y3015845D1*
X792218Y3008715D1*
X794650Y3003906D1*
X799403Y2999153D1*
X804212Y2996721D1*
X813773D1*
X818526Y2999153D1*
X823335Y3003906D1*
X825711Y3008715D1*
Y3015845D1*
X813773D1*
X874644Y3046961D2*
Y2996721D1*
X841151Y3046961D1*
Y2996721D1*
X890083Y3046961D2*
Y2996721D1*
X906830D1*
X914015Y2999153D1*
X918823Y3003906D1*
X921200Y3008715D1*
X923577Y3015845D1*
Y3027838D1*
X921200Y3035023D1*
X918823Y3039776D1*
X914015Y3044585D1*
X906830Y3046961D1*
X890083D1*
M02*
